…
``` r
library(dplyr)
library(gpt2samples)

conditional %>%
  filter(id == 100)
#> # A tibble: 2 x 4
#>   file         id type     text                                            
#>   <chr>     <int> <chr>    <chr>                                           
#> 1 conditio…   100 sample   the waterbody that you are managing, getting pr…
#> 2 conditio…   100 complet… Permit, WDFW ensures that nonconventional child…

unconditional_t07 %>%
  filter(id == 250)
#> # A tibble: 213 x 3
#>    file              id text                                               
#>    <chr>          <int> <chr>                                              
#>  1 unconditional…   250 This question already has an answer here: How do I…
#>  2 unconditional…   250 ""                                                 
#>  3 unconditional…   250 This is a basic question regarding text editing. T…
#>  4 unconditional…   250 ""                                                 
#>  5 unconditional…   250 (A)                                                
#>  6 unconditional…   250 ""                                                 
#>  7 unconditional…   250 (B)                                                
#>  8 unconditional…   250 ""                                                 
#>  9 unconditional…   250 (A)                                                
#> 10 unconditional…   250 ""                                                 
#> # … with 203 more rows
…
